0 4.47 
1 4.45972222222 
2 4.44944444444 
3 4.43916666667 
4 4.42888888889 
5 4.41861111111 
6 4.40833333333 
7 4.39805555556 
8 4.38777777778 
9 4.3775 
10 4.36722222222 
11 4.35694444444 
12 4.34666666667 
13 4.33638888889 
14 4.32611111111 
15 4.31583333333 
16 4.30555555556 
17 4.29527777778 
18 4.285 
19 4.27472222222 
20 4.26444444444 
21 4.25416666667 
22 4.24388888889 
23 4.23361111111 
24 4.22333333333 
25 4.21305555556 
26 4.20277777778 
27 4.1925 
28 4.18222222222 
29 4.17194444444 
30 4.16166666667 
31 4.15138888889 
32 4.14111111111 
33 4.13083333333 
34 4.12055555556 
35 4.11027777778 
36 4.1 
