   # ctime      b_rel      g_rel     beta_y        int    int_err      sigma  sigma_err         em     em_err 
       350     0.4273     1.1061     3.9133    65.4246     1.3330     3.2426     0.0315     0.6731     0.0056 
       450     0.6206     1.2753     3.9066    65.7396     1.2166     2.3158     0.0200     0.7795     0.0119 
       330     0.3924     1.0872     3.9174    65.8143     1.3467     3.5509     0.0355     0.9907     0.0118 
       300     0.3445     1.0652     3.9217    64.9039     1.1285     3.9214     0.0157     0.6661     0.0095 
       500     0.7131     1.4264     3.9054    66.5210     1.4497     2.0047     0.0206     0.5365     0.0081 
       650     0.8820     2.1216     3.8945    65.9597     0.5067     1.4497     0.0086     0.3092     0.0029 
       700     0.9045     2.3451     3.8888    65.7983     1.3989     1.3680     0.0149     0.3149     0.0057 
       550     0.7897     1.6298     3.9015    65.7397     0.8499     1.7317     0.0138     0.5094     0.0092 
       770     0.9150     2.4779     3.8864    66.9288     1.5021     1.3298     0.0145     0.4752     0.0007 
       320     0.3758     1.0791     3.9188    65.0040     0.9937     3.6920     0.0201     0.7330     0.0040 
       400     0.5215     1.1720     3.9089    65.3119     1.3097     2.7299     0.0204     0.7250     0.0063 
       750     0.9143     2.4687     3.8861    66.0270     1.8700     1.3218     0.0115     0.5798     0.0073 
       310     0.3598     1.0718     3.9201    64.2949     1.5352     3.8062     0.0217     0.8821     0.0055 
       600     0.8447     1.8682     3.8985    65.4746     1.3717     1.5683     0.0128     0.6115     0.0090 
